Adders/adder_subtractor/adder_subtractor.vcd
$date
	Mon Jun 22 08:24:22 2026
$end
$version
	Icarus Verilog
$end
$timescale
	1s
$end
$scope module adder_subtractor_tb $end
$var wire 4 ! z [3:0] $end
$var wire 4 " y [3:0] $end
$var wire 1 # cout $end
$var reg 4 $ a [3:0] $end
$var reg 4 % b [3:0] $end
$var reg 1 & cin $end
$var integer 32 ' i [31:0] $end
$var integer 32 ( j [31:0] $end
$var integer 32 ) k [31:0] $end
$scope module dut $end
$var wire 4 * A [3:0] $end
$var wire 4 + B [3:0] $end
$var wire 1 & Cin $end
$var wire 4 , Z [3:0] $end
$var wire 4 - Y [3:0] $end
$var wire 1 # Cout $end
$var wire 3 . C [2:0] $end
$scope module FA0 $end
$var wire 1 / A $end
$var wire 1 0 B $end
$var wire 1 & C $end
$var wire 1 1 Carry $end
$var wire 1 2 Sum $end
$var wire 1 3 a1 $end
$var wire 1 4 a2 $end
$var wire 1 5 a3 $end
$upscope $end
$scope module FA1 $end
$var wire 1 6 A $end
$var wire 1 7 B $end
$var wire 1 8 C $end
$var wire 1 9 Carry $end
$var wire 1 : Sum $end
$var wire 1 ; a1 $end
$var wire 1 < a2 $end
$var wire 1 = a3 $end
$upscope $end
$scope module FA2 $end
$var wire 1 > A $end
$var wire 1 ? B $end
$var wire 1 @ C $end
$var wire 1 A Carry $end
$var wire 1 B Sum $end
$var wire 1 C a1 $end
$var wire 1 D a2 $end
$var wire 1 E a3 $end
$upscope $end
$scope module FA3 $end
$var wire 1 F A $end
$var wire 1 G B $end
$var wire 1 H C $end
$var wire 1 # Carry $end
$var wire 1 I Sum $end
$var wire 1 J a1 $end
$var wire 1 K a2 $end
$var wire 1 L a3 $end
$upscope $end
$scope module x0 $end
$var wire 1 & A $end
$var wire 1 M B $end
$var wire 1 N Y $end
$upscope $end
$scope module x1 $end
$var wire 1 & A $end
$var wire 1 O B $end
$var wire 1 P Y $end
$upscope $end
$scope module x2 $end
$var wire 1 & A $end
$var wire 1 Q B $end
$var wire 1 R Y $end
$upscope $end
$scope module x3 $end
$var wire 1 & A $end
$var wire 1 S B $end
$var wire 1 T Y $end
$upscope $end
$upscope $end
$upscope $end
$enddefinitions $end
$comment Show the parameter values. $end
$dumpall
$end
#0
$dumpvars
0T
0S
0R
0Q
0P
0O
0N
0M
0L
0K
0J
0I
0H
0G
0F
0E
0D
0C
0B
0A
0@
0?
0>
0=
0<
0;
0:
09
08
07
06
05
04
03
02
01
00
0/
b0 .
b0 -
b0 ,
b0 +
b0 *
b0 )
b0 (
b0 '
0&
b0 %
b0 $
0#
b0 "
b0 !
$end
#10
b1 !
b1 ,
12
10
b1 "
b1 -
1N
1M
b1 %
b1 +
b1 (
#20
02
b10 !
b10 ,
1:
00
17
0N
b10 "
b10 -
1P
0M
1O
b10 %
b10 +
b10 (
#30
b11 !
b11 ,
12
10
b11 "
b11 -
1N
1M
b11 %
b11 +
b11 (
#40
02
0:
b100 !
b100 ,
1B
00
07
1?
0N
0P
b100 "
b100 -
1R
0M
0O
1Q
b100 %
b100 +
b100 (
#50
b101 !
b101 ,
12
10
b101 "
b101 -
1N
1M
b101 %
b101 +
b101 (
#60
02
b110 !
b110 ,
1:
00
17
0N
b110 "
b110 -
1P
0M
1O
b110 %
b110 +
b110 (
#70
b111 !
b111 ,
12
10
b111 "
b111 -
1N
1M
b111 %
b111 +
b111 (
#80
02
0:
0B
b1000 !
b1000 ,
1I
00
07
0?
1G
0N
0P
0R
b1000 "
b1000 -
1T
0M
0O
0Q
1S
b1000 %
b1000 +
b1000 (
#90
b1001 !
b1001 ,
12
10
b1001 "
b1001 -
1N
1M
b1001 %
b1001 +
b1001 (
#100
02
b1010 !
b1010 ,
1:
00
17
0N
b1010 "
b1010 -
1P
0M
1O
b1010 %
b1010 +
b1010 (
#110
b1011 !
b1011 ,
12
10
b1011 "
b1011 -
1N
1M
b1011 %
b1011 +
b1011 (
#120
02
0:
b1100 !
b1100 ,
1B
00
07
1?
0N
0P
b1100 "
b1100 -
1R
0M
0O
1Q
b1100 %
b1100 +
b1100 (
#130
b1101 !
b1101 ,
12
10
b1101 "
b1101 -
1N
1M
b1101 %
b1101 +
b1101 (
#140
02
b1110 !
b1110 ,
1:
00
17
0N
b1110 "
b1110 -
1P
0M
1O
b1110 %
b1110 +
b1110 (
#150
b1111 !
b1111 ,
12
10
b1111 "
b1111 -
1N
1M
b1111 %
b1111 +
b1111 (
#160
0:
0B
0I
08
00
07
0?
0G
b0 .
01
0N
0P
0R
b0 "
b0 -
0T
b1 !
b1 ,
12
03
0M
0O
0Q
0S
1/
b0 %
b0 +
b1 $
b1 *
b1 '
b0 (
#170
1:
18
b1 .
11
b10 !
b10 ,
02
13
10
b1 "
b1 -
1N
1M
b1 %
b1 +
b1 (
#180
0B
08
0@
01
b0 .
09
12
03
b11 !
b11 ,
1:
0=
00
17
0N
b10 "
b10 -
1P
0M
1O
b10 %
b10 +
b10 (
#190
1B
1@
19
0:
1=
18
b11 .
11
b100 !
b100 ,
02
13
10
b11 "
b11 -
1N
1M
b11 %
b11 +
b11 (
#200
0I
08
0@
0H
01
09
b0 .
0A
12
03
0:
0=
b101 !
b101 ,
1B
0E
00
07
1?
0N
0P
b100 "
b100 -
1R
0M
0O
1Q
b100 %
b100 +
b100 (
#210
1:
18
b1 .
11
b110 !
b110 ,
02
13
10
b101 "
b101 -
1N
1M
b101 %
b101 +
b101 (
#220
0I
0H
0A
1B
0E
08
0@
01
b0 .
09
12
03
b111 !
b111 ,
1:
0=
00
17
0N
b110 "
b110 -
1P
0M
1O
b110 %
b110 +
b110 (
#230
1I
1H
1A
0B
1E
1@
19
0:
1=
18
b111 .
11
b1000 !
b1000 ,
02
13
10
b111 "
b111 -
1N
1M
b111 %
b111 +
b111 (
#240
08
0@
0H
01
09
b0 .
0A
0#
12
03
0:
0=
0B
0E
b1001 !
b1001 ,
1I
0L
00
07
0?
1G
0N
0P
0R
b1000 "
b1000 -
1T
0M
0O
0Q
1S
b1000 %
b1000 +
b1000 (
#250
1:
18
b1 .
11
b1010 !
b1010 ,
02
13
10
b1001 "
b1001 -
1N
1M
b1001 %
b1001 +
b1001 (
#260
0B
08
0@
01
b0 .
09
12
03
b1011 !
b1011 ,
1:
0=
00
17
0N
b1010 "
b1010 -
1P
0M
1O
b1010 %
b1010 +
b1010 (
#270
1B
1@
19
0:
1=
18
b11 .
11
b1100 !
b1100 ,
02
13
10
b1011 "
b1011 -
1N
1M
b1011 %
b1011 +
b1011 (
#280
0#
1I
0L
08
0@
0H
01
09
b0 .
0A
12
03
0:
0=
b1101 !
b1101 ,
1B
0E
00
07
1?
0N
0P
b1100 "
b1100 -
1R
0M
0O
1Q
b1100 %
b1100 +
b1100 (
#290
1:
18
b1 .
11
b1110 !
b1110 ,
02
13
10
b1101 "
b1101 -
1N
1M
b1101 %
b1101 +
b1101 (
#300
0#
1I
0L
0H
0A
1B
0E
08
0@
01
b0 .
09
12
03
b1111 !
b1111 ,
1:
0=
00
17
0N
b1110 "
b1110 -
1P
0M
1O
b1110 %
b1110 +
b1110 (
#310
1#
0I
1L
1H
1A
0B
1E
1@
19
0:
1=
18
b111 .
11
b0 !
b0 ,
02
13
10
b1111 "
b1111 -
1N
1M
b1111 %
b1111 +
b1111 (
#320
0@
0H
09
0A
0#
0=
0B
0E
0I
0L
08
00
07
0?
0G
b0 .
01
0N
0P
0R
b0 "
b0 -
0T
02
03
b10 !
b10 ,
1:
0;
0<
0M
0O
0Q
0S
0/
16
b0 %
b0 +
b10 $
b10 *
b10 '
b0 (
#330
b11 !
b11 ,
12
10
b1 "
b1 -
1N
1M
b1 %
b1 +
b1 (
#340
1B
1@
b10 .
19
02
b100 !
b100 ,
0:
1;
00
17
0N
b10 "
b10 -
1P
0M
1O
b10 %
b10 +
b10 (
#350
b101 !
b101 ,
12
10
b11 "
b11 -
1N
1M
b11 %
b11 +
b11 (
#360
0I
0@
0H
09
b0 .
0A
02
1:
0;
b110 !
b110 ,
1B
0E
00
07
1?
0N
0P
b100 "
b100 -
1R
0M
0O
1Q
b100 %
b100 +
b100 (
#370
b111 !
b111 ,
12
10
b101 "
b101 -
1N
1M
b101 %
b101 +
b101 (
#380
1I
1H
1A
0B
1E
1@
b110 .
19
02
b1000 !
b1000 ,
0:
1;
00
17
0N
b110 "
b110 -
1P
0M
1O
b110 %
b110 +
b110 (
#390
b1001 !
b1001 ,
12
10
b111 "
b111 -
1N
1M
b111 %
b111 +
b111 (
#400
0@
0H
09
b0 .
0A
0#
02
1:
0;
0B
0E
b1010 !
b1010 ,
1I
0L
00
07
0?
1G
0N
0P
0R
b1000 "
b1000 -
1T
0M
0O
0Q
1S
b1000 %
b1000 +
b1000 (
#410
b1011 !
b1011 ,
12
10
b1001 "
b1001 -
1N
1M
b1001 %
b1001 +
b1001 (
#420
1B
1@
b10 .
19
02
b1100 !
b1100 ,
0:
1;
00
17
0N
b1010 "
b1010 -
1P
0M
1O
b1010 %
b1010 +
b1010 (
#430
b1101 !
b1101 ,
12
10
b1011 "
b1011 -
1N
1M
b1011 %
b1011 +
b1011 (
#440
0#
1I
0L
0@
0H
09
b0 .
0A
02
1:
0;
b1110 !
b1110 ,
1B
0E
00
07
1?
0N
0P
b1100 "
b1100 -
1R
0M
0O
1Q
b1100 %
b1100 +
b1100 (
#450
b1111 !
b1111 ,
12
10
b1101 "
b1101 -
1N
1M
b1101 %
b1101 +
b1101 (
#460
1#
0I
1L
1H
1A
0B
1E
1@
b110 .
19
02
b0 !
b0 ,
0:
1;
00
17
0N
b1110 "
b1110 -
1P
0M
1O
b1110 %
b1110 +
b1110 (
#470
b1 !
b1 ,
12
10
b1111 "
b1111 -
1N
1M
b1111 %
b1111 +
b1111 (
#480
0@
09
1:
0H
0A
0#
0<
0;
0B
0E
0I
0L
08
00
07
0?
0G
b0 .
01
0N
0P
0R
b0 "
b0 -
0T
b11 !
b11 ,
12
03
0M
0O
0Q
0S
1/
b0 %
b0 +
b11 $
b11 *
b11 '
b0 (
#490
1B
1@
19
0:
1<
18
b11 .
11
b100 !
b100 ,
02
13
10
b1 "
b1 -
1N
1M
b1 %
b1 +
b1 (
#500
0<
08
b10 .
01
12
03
b101 !
b101 ,
0:
1;
0=
00
17
0N
b10 "
b10 -
1P
0M
1O
b10 %
b10 +
b10 (
#510
1:
1<
1=
18
b11 .
11
b110 !
b110 ,
02
13
10
b11 "
b11 -
1N
1M
b11 %
b11 +
b11 (
#520
0@
09
0<
0I
08
0H
01
b0 .
0A
12
03
1:
0;
0=
b111 !
b111 ,
1B
0E
00
07
1?
0N
0P
b100 "
b100 -
1R
0M
0O
1Q
b100 %
b100 +
b100 (
#530
1I
1H
1A
0B
1E
1@
19
0:
1<
18
b111 .
11
b1000 !
b1000 ,
02
13
10
b101 "
b101 -
1N
1M
b101 %
b101 +
b101 (
#540
0<
08
b110 .
01
12
03
b1001 !
b1001 ,
0:
1;
0=
00
17
0N
b110 "
b110 -
1P
0M
1O
b110 %
b110 +
b110 (
#550
1:
1<
1=
18
b111 .
11
b1010 !
b1010 ,
02
13
10
b111 "
b111 -
1N
1M
b111 %
b111 +
b111 (
#560
0@
09
0<
08
0H
01
b0 .
0A
0#
12
03
1:
0;
0=
0B
0E
b1011 !
b1011 ,
1I
0L
00
07
0?
1G
0N
0P
0R
b1000 "
b1000 -
1T
0M
0O
0Q
1S
b1000 %
b1000 +
b1000 (
#570
1B
1@
19
0:
1<
18
b11 .
11
b1100 !
b1100 ,
02
13
10
b1001 "
b1001 -
1N
1M
b1001 %
b1001 +
b1001 (
#580
0<
08
b10 .
01
12
03
b1101 !
b1101 ,
0:
1;
0=
00
17
0N
b1010 "
b1010 -
1P
0M
1O
b1010 %
b1010 +
b1010 (
#590
1:
1<
1=
18
b11 .
11
b1110 !
b1110 ,
02
13
10
b1011 "
b1011 -
1N
1M
b1011 %
b1011 +
b1011 (
#600
0@
09
0#
0<
1I
0L
08
0H
01
b0 .
0A
12
03
1:
0;
0=
b1111 !
b1111 ,
1B
0E
00
07
1?
0N
0P
b1100 "
b1100 -
1R
0M
0O
1Q
b1100 %
b1100 +
b1100 (
#610
1#
0I
1L
1H
1A
0B
1E
1@
19
0:
1<
18
b111 .
11
b0 !
b0 ,
02
13
10
b1101 "
b1101 -
1N
1M
b1101 %
b1101 +
b1101 (
#620
0<
08
b110 .
01
12
03
b1 !
b1 ,
0:
1;
0=
00
17
0N
b1110 "
b1110 -
1P
0M
1O
b1110 %
b1110 +
b1110 (
#630
1:
1<
1=
18
b111 .
11
b10 !
b10 ,
02
13
10
b1111 "
b1111 -
1N
1M
b1111 %
b1111 +
b1111 (
#640
0H
0A
0@
09
0#
0=
0E
0I
0L
08
00
07
0?
0G
b0 .
01
0N
0P
0R
b0 "
b0 -
0T
02
03
0:
0;
0<
b100 !
b100 ,
1B
0C
0D
0M
0O
0Q
0S
0/
06
1>
b0 %
b0 +
b100 $
b100 *
b100 '
b0 (
#650
b101 !
b101 ,
12
10
b1 "
b1 -
1N
1M
b1 %
b1 +
b1 (
#660
02
b110 !
b110 ,
1:
00
17
0N
b10 "
b10 -
1P
0M
1O
b10 %
b10 +
b10 (
#670
b111 !
b111 ,
12
10
b11 "
b11 -
1N
1M
b11 %
b11 +
b11 (
#680
1I
1H
b100 .
1A
02
0:
b1000 !
b1000 ,
0B
1C
00
07
1?
0N
0P
b100 "
b100 -
1R
0M
0O
1Q
b100 %
b100 +
b100 (
#690
b1001 !
b1001 ,
12
10
b101 "
b101 -
1N
1M
b101 %
b101 +
b101 (
#700
02
b1010 !
b1010 ,
1:
00
17
0N
b110 "
b110 -
1P
0M
1O
b110 %
b110 +
b110 (
#710
b1011 !
b1011 ,
12
10
b111 "
b111 -
1N
1M
b111 %
b111 +
b111 (
#720
0H
b0 .
0A
0#
02
0:
1B
0C
b1100 !
b1100 ,
1I
0L
00
07
0?
1G
0N
0P
0R
b1000 "
b1000 -
1T
0M
0O
0Q
1S
b1000 %
b1000 +
b1000 (
#730
b1101 !
b1101 ,
12
10
b1001 "
b1001 -
1N
1M
b1001 %
b1001 +
b1001 (
#740
02
b1110 !
b1110 ,
1:
00
17
0N
b1010 "
b1010 -
1P
0M
1O
b1010 %
b1010 +
b1010 (
#750
b1111 !
b1111 ,
12
10
b1011 "
b1011 -
1N
1M
b1011 %
b1011 +
b1011 (
#760
1#
0I
1L
1H
b100 .
1A
02
0:
b0 !
b0 ,
0B
1C
00
07
1?
0N
0P
b1100 "
b1100 -
1R
0M
0O
1Q
b1100 %
b1100 +
b1100 (
#770
b1 !
b1 ,
12
10
b1101 "
b1101 -
1N
1M
b1101 %
b1101 +
b1101 (
#780
02
b10 !
b10 ,
1:
00
17
0N
b1110 "
b1110 -
1P
0M
1O
b1110 %
b1110 +
b1110 (
#790
b11 !
b11 ,
12
10
b1111 "
b1111 -
1N
1M
b1111 %
b1111 +
b1111 (
#800
0:
0H
0A
0#
1B
0C
0I
0L
08
00
07
0?
0G
b0 .
01
0N
0P
0R
b0 "
b0 -
0T
b101 !
b101 ,
12
03
0M
0O
0Q
0S
1/
b0 %
b0 +
b101 $
b101 *
b101 '
b0 (
#810
1:
18
b1 .
11
b110 !
b110 ,
02
13
10
b1 "
b1 -
1N
1M
b1 %
b1 +
b1 (
#820
0I
0H
0A
1B
0D
08
0@
01
b0 .
09
12
03
b111 !
b111 ,
1:
0=
00
17
0N
b10 "
b10 -
1P
0M
1O
b10 %
b10 +
b10 (
#830
1I
1H
1A
0B
1D
1@
19
0:
1=
18
b111 .
11
b1000 !
b1000 ,
02
13
10
b11 "
b11 -
1N
1M
b11 %
b11 +
b11 (
#840
0D
08
0@
01
b100 .
09
12
03
0:
0=
b1001 !
b1001 ,
0B
1C
0E
00
07
1?
0N
0P
b100 "
b100 -
1R
0M
0O
1Q
b100 %
b100 +
b100 (
#850
1:
18
b101 .
11
b1010 !
b1010 ,
02
13
10
b101 "
b101 -
1N
1M
b101 %
b101 +
b101 (
#860
0B
0D
0E
08
0@
01
b100 .
09
12
03
b1011 !
b1011 ,
1:
0=
00
17
0N
b110 "
b110 -
1P
0M
1O
b110 %
b110 +
b110 (
#870
1B
1D
1E
1@
19
0:
1=
18
b111 .
11
b1100 !
b1100 ,
02
13
10
b111 "
b111 -
1N
1M
b111 %
b111 +
b111 (
#880
0H
0A
0D
08
0@
01
b0 .
09
0#
12
03
0:
0=
1B
0C
0E
b1101 !
b1101 ,
1I
0L
00
07
0?
1G
0N
0P
0R
b1000 "
b1000 -
1T
0M
0O
0Q
1S
b1000 %
b1000 +
b1000 (
#890
1:
18
b1 .
11
b1110 !
b1110 ,
02
13
10
b1001 "
b1001 -
1N
1M
b1001 %
b1001 +
b1001 (
#900
0#
1I
0L
0H
0A
1B
0D
08
0@
01
b0 .
09
12
03
b1111 !
b1111 ,
1:
0=
00
17
0N
b1010 "
b1010 -
1P
0M
1O
b1010 %
b1010 +
b1010 (
#910
1#
0I
1L
1H
1A
0B
1D
1@
19
0:
1=
18
b111 .
11
b0 !
b0 ,
02
13
10
b1011 "
b1011 -
1N
1M
b1011 %
b1011 +
b1011 (
#920
0D
08
0@
01
b100 .
09
12
03
0:
0=
b1 !
b1 ,
0B
1C
0E
00
07
1?
0N
0P
b1100 "
b1100 -
1R
0M
0O
1Q
b1100 %
b1100 +
b1100 (
#930
1:
18
b101 .
11
b10 !
b10 ,
02
13
10
b1101 "
b1101 -
1N
1M
b1101 %
b1101 +
b1101 (
#940
0B
0D
0E
08
0@
01
b100 .
09
12
03
b11 !
b11 ,
1:
0=
00
17
0N
b1110 "
b1110 -
1P
0M
1O
b1110 %
b1110 +
b1110 (
#950
1B
1D
1E
1@
19
0:
1=
18
b111 .
11
b100 !
b100 ,
02
13
10
b1111 "
b1111 -
1N
1M
b1111 %
b1111 +
b1111 (
#960
0H
0A
0D
0@
09
0#
0=
1B
0C
0E
0I
0L
08
00
07
0?
0G
b0 .
01
0N
0P
0R
b0 "
b0 -
0T
02
03
b110 !
b110 ,
1:
0;
0<
0M
0O
0Q
0S
0/
16
b0 %
b0 +
b110 $
b110 *
b110 '
b0 (
#970
b111 !
b111 ,
12
10
b1 "
b1 -
1N
1M
b1 %
b1 +
b1 (
#980
1I
1H
1A
0B
1D
1@
b110 .
19
02
b1000 !
b1000 ,
0:
1;
00
17
0N
b10 "
b10 -
1P
0M
1O
b10 %
b10 +
b10 (
#990
b1001 !
b1001 ,
12
10
b11 "
b11 -
1N
1M
b11 %
b11 +
b11 (
#1000
0D
0@
b100 .
09
02
1:
0;
b1010 !
b1010 ,
0B
1C
0E
00
07
1?
0N
0P
b100 "
b100 -
1R
0M
0O
1Q
b100 %
b100 +
b100 (
#1010
b1011 !
b1011 ,
12
10
b101 "
b101 -
1N
1M
b101 %
b101 +
b101 (
#1020
1B
1D
1E
1@
b110 .
19
02
b1100 !
b1100 ,
0:
1;
00
17
0N
b110 "
b110 -
1P
0M
1O
b110 %
b110 +
b110 (
#1030
b1101 !
b1101 ,
12
10
b111 "
b111 -
1N
1M
b111 %
b111 +
b111 (
#1040
0H
0A
0D
0@
b0 .
09
0#
02
1:
0;
1B
0C
0E
b1110 !
b1110 ,
1I
0L
00
07
0?
1G
0N
0P
0R
b1000 "
b1000 -
1T
0M
0O
0Q
1S
b1000 %
b1000 +
b1000 (
#1050
b1111 !
b1111 ,
12
10
b1001 "
b1001 -
1N
1M
b1001 %
b1001 +
b1001 (
#1060
1#
0I
1L
1H
1A
0B
1D
1@
b110 .
19
02
b0 !
b0 ,
0:
1;
00
17
0N
b1010 "
b1010 -
1P
0M
1O
b1010 %
b1010 +
b1010 (
#1070
b1 !
b1 ,
12
10
b1011 "
b1011 -
1N
1M
b1011 %
b1011 +
b1011 (
#1080
0D
0@
b100 .
09
02
1:
0;
b10 !
b10 ,
0B
1C
0E
00
07
1?
0N
0P
b1100 "
b1100 -
1R
0M
0O
1Q
b1100 %
b1100 +
b1100 (
#1090
b11 !
b11 ,
12
10
b1101 "
b1101 -
1N
1M
b1101 %
b1101 +
b1101 (
#1100
1B
1D
1E
1@
b110 .
19
02
b100 !
b100 ,
0:
1;
00
17
0N
b1110 "
b1110 -
1P
0M
1O
b1110 %
b1110 +
b1110 (
#1110
b101 !
b101 ,
12
10
b1111 "
b1111 -
1N
1M
b1111 %
b1111 +
b1111 (
#1120
0H
0A
0D
0@
09
1:
0#
0<
0;
1B
0C
0E
0I
0L
08
00
07
0?
0G
b0 .
01
0N
0P
0R
b0 "
b0 -
0T
b111 !
b111 ,
12
03
0M
0O
0Q
0S
1/
b0 %
b0 +
b111 $
b111 *
b111 '
b0 (
#1130
1I
1H
1A
0B
1D
1@
19
0:
1<
18
b111 .
11
b1000 !
b1000 ,
02
13
10
b1 "
b1 -
1N
1M
b1 %
b1 +
b1 (
#1140
0<
08
b110 .
01
12
03
b1001 !
b1001 ,
0:
1;
0=
00
17
0N
b10 "
b10 -
1P
0M
1O
b10 %
b10 +
b10 (
#1150
1:
1<
1=
18
b111 .
11
b1010 !
b1010 ,
02
13
10
b11 "
b11 -
1N
1M
b11 %
b11 +
b11 (
#1160
0D
0@
09
0<
08
b100 .
01
12
03
1:
0;
0=
b1011 !
b1011 ,
0B
1C
0E
00
07
1?
0N
0P
b100 "
b100 -
1R
0M
0O
1Q
b100 %
b100 +
b100 (
#1170
1B
1D
1E
1@
19
0:
1<
18
b111 .
11
b1100 !
b1100 ,
02
13
10
b101 "
b101 -
1N
1M
b101 %
b101 +
b101 (
#1180
0<
08
b110 .
01
12
03
b1101 !
b1101 ,
0:
1;
0=
00
17
0N
b110 "
b110 -
1P
0M
1O
b110 %
b110 +
b110 (
#1190
1:
1<
1=
18
b111 .
11
b1110 !
b1110 ,
02
13
10
b111 "
b111 -
1N
1M
b111 %
b111 +
b111 (
#1200
0H
0A
0D
0@
09
0<
08
b0 .
01
0#
12
03
1:
0;
0=
1B
0C
0E
b1111 !
b1111 ,
1I
0L
00
07
0?
1G
0N
0P
0R
b1000 "
b1000 -
1T
0M
0O
0Q
1S
b1000 %
b1000 +
b1000 (
#1210
1#
0I
1L
1H
1A
0B
1D
1@
19
0:
1<
18
b111 .
11
b0 !
b0 ,
02
13
10
b1001 "
b1001 -
1N
1M
b1001 %
b1001 +
b1001 (
#1220
0<
08
b110 .
01
12
03
b1 !
b1 ,
0:
1;
0=
00
17
0N
b1010 "
b1010 -
1P
0M
1O
b1010 %
b1010 +
b1010 (
#1230
1:
1<
1=
18
b111 .
11
b10 !
b10 ,
02
13
10
b1011 "
b1011 -
1N
1M
b1011 %
b1011 +
b1011 (
#1240
0D
0@
09
0<
08
b100 .
01
12
03
1:
0;
0=
b11 !
b11 ,
0B
1C
0E
00
07
1?
0N
0P
b1100 "
b1100 -
1R
0M
0O
1Q
b1100 %
b1100 +
b1100 (
#1250
1B
1D
1E
1@
19
0:
1<
18
b111 .
11
b100 !
b100 ,
02
13
10
b1101 "
b1101 -
1N
1M
b1101 %
b1101 +
b1101 (
#1260
0<
08
b110 .
01
12
03
b101 !
b101 ,
0:
1;
0=
00
17
0N
b1110 "
b1110 -
1P
0M
1O
b1110 %
b1110 +
b1110 (
#1270
1:
1<
1=
18
b111 .
11
b110 !
b110 ,
02
13
10
b1111 "
b1111 -
1N
1M
b1111 %
b1111 +
b1111 (
#1280
0#
0@
0H
09
0A
0=
0E
0L
08
00
07
0?
0G
b0 .
01
0N
0P
0R
b0 "
b0 -
0T
02
03
0:
0;
0<
0B
0C
0D
b1000 !
b1000 ,
1I
0J
0K
0M
0O
0Q
0S
0/
06
0>
1F
b0 %
b0 +
b1000 $
b1000 *
b1000 '
b0 (
#1290
b1001 !
b1001 ,
12
10
b1 "
b1 -
1N
1M
b1 %
b1 +
b1 (
#1300
02
b1010 !
b1010 ,
1:
00
17
0N
b10 "
b10 -
1P
0M
1O
b10 %
b10 +
b10 (
#1310
b1011 !
b1011 ,
12
10
b11 "
b11 -
1N
1M
b11 %
b11 +
b11 (
#1320
02
0:
b1100 !
b1100 ,
1B
00
07
1?
0N
0P
b100 "
b100 -
1R
0M
0O
1Q
b100 %
b100 +
b100 (
#1330
b1101 !
b1101 ,
12
10
b101 "
b101 -
1N
1M
b101 %
b101 +
b101 (
#1340
02
b1110 !
b1110 ,
1:
00
17
0N
b110 "
b110 -
1P
0M
1O
b110 %
b110 +
b110 (
#1350
b1111 !
b1111 ,
12
10
b111 "
b111 -
1N
1M
b111 %
b111 +
b111 (
#1360
1#
02
0:
0B
b0 !
b0 ,
0I
1J
00
07
0?
1G
0N
0P
0R
b1000 "
b1000 -
1T
0M
0O
0Q
1S
b1000 %
b1000 +
b1000 (
#1370
b1 !
b1 ,
12
10
b1001 "
b1001 -
1N
1M
b1001 %
b1001 +
b1001 (
#1380
02
b10 !
b10 ,
1:
00
17
0N
b1010 "
b1010 -
1P
0M
1O
b1010 %
b1010 +
b1010 (
#1390
b11 !
b11 ,
12
10
b1011 "
b1011 -
1N
1M
b1011 %
b1011 +
b1011 (
#1400
02
0:
b100 !
b100 ,
1B
00
07
1?
0N
0P
b1100 "
b1100 -
1R
0M
0O
1Q
b1100 %
b1100 +
b1100 (
#1410
b101 !
b101 ,
12
10
b1101 "
b1101 -
1N
1M
b1101 %
b1101 +
b1101 (
#1420
02
b110 !
b110 ,
1:
00
17
0N
b1110 "
b1110 -
1P
0M
1O
b1110 %
b1110 +
b1110 (
#1430
b111 !
b111 ,
12
10
b1111 "
b1111 -
1N
1M
b1111 %
b1111 +
b1111 (
#1440
0:
0#
0B
1I
0J
08
00
07
0?
0G
b0 .
01
0N
0P
0R
b0 "
b0 -
0T
b1001 !
b1001 ,
12
03
0M
0O
0Q
0S
1/
b0 %
b0 +
b1001 $
b1001 *
b1001 '
b0 (
#1450
1:
18
b1 .
11
b1010 !
b1010 ,
02
13
10
b1 "
b1 -
1N
1M
b1 %
b1 +
b1 (
#1460
0B
08
0@
01
b0 .
09
12
03
b1011 !
b1011 ,
1:
0=
00
17
0N
b10 "
b10 -
1P
0M
1O
b10 %
b10 +
b10 (
#1470
1B
1@
19
0:
1=
18
b11 .
11
b1100 !
b1100 ,
02
13
10
b11 "
b11 -
1N
1M
b11 %
b11 +
b11 (
#1480
0#
1I
0K
08
0@
0H
01
09
b0 .
0A
12
03
0:
0=
b1101 !
b1101 ,
1B
0E
00
07
1?
0N
0P
b100 "
b100 -
1R
0M
0O
1Q
b100 %
b100 +
b100 (
#1490
1:
18
b1 .
11
b1110 !
b1110 ,
02
13
10
b101 "
b101 -
1N
1M
b101 %
b101 +
b101 (
#1500
0#
1I
0K
0H
0A
1B
0E
08
0@
01
b0 .
09
12
03
b1111 !
b1111 ,
1:
0=
00
17
0N
b110 "
b110 -
1P
0M
1O
b110 %
b110 +
b110 (
#1510
1#
0I
1K
1H
1A
0B
1E
1@
19
0:
1=
18
b111 .
11
b0 !
b0 ,
02
13
10
b111 "
b111 -
1N
1M
b111 %
b111 +
b111 (
#1520
0K
08
0@
0H
01
09
b0 .
0A
12
03
0:
0=
0B
0E
b1 !
b1 ,
0I
1J
0L
00
07
0?
1G
0N
0P
0R
b1000 "
b1000 -
1T
0M
0O
0Q
1S
b1000 %
b1000 +
b1000 (
#1530
1:
18
b1 .
11
b10 !
b10 ,
02
13
10
b1001 "
b1001 -
1N
1M
b1001 %
b1001 +
b1001 (
#1540
0B
08
0@
01
b0 .
09
12
03
b11 !
b11 ,
1:
0=
00
17
0N
b1010 "
b1010 -
1P
0M
1O
b1010 %
b1010 +
b1010 (
#1550
1B
1@
19
0:
1=
18
b11 .
11
b100 !
b100 ,
02
13
10
b1011 "
b1011 -
1N
1M
b1011 %
b1011 +
b1011 (
#1560
0I
0K
0L
08
0@
0H
01
09
b0 .
0A
12
03
0:
0=
b101 !
b101 ,
1B
0E
00
07
1?
0N
0P
b1100 "
b1100 -
1R
0M
0O
1Q
b1100 %
b1100 +
b1100 (
#1570
1:
18
b1 .
11
b110 !
b110 ,
02
13
10
b1101 "
b1101 -
1N
1M
b1101 %
b1101 +
b1101 (
#1580
0I
0K
0L
0H
0A
1B
0E
08
0@
01
b0 .
09
12
03
b111 !
b111 ,
1:
0=
00
17
0N
b1110 "
b1110 -
1P
0M
1O
b1110 %
b1110 +
b1110 (
#1590
1I
1K
1L
1H
1A
0B
1E
1@
19
0:
1=
18
b111 .
11
b1000 !
b1000 ,
02
13
10
b1111 "
b1111 -
1N
1M
b1111 %
b1111 +
b1111 (
#1600
0#
0K
0@
0H
09
0A
0=
0B
0E
1I
0J
0L
08
00
07
0?
0G
b0 .
01
0N
0P
0R
b0 "
b0 -
0T
02
03
b1010 !
b1010 ,
1:
0;
0<
0M
0O
0Q
0S
0/
16
b0 %
b0 +
b1010 $
b1010 *
b1010 '
b0 (
#1610
b1011 !
b1011 ,
12
10
b1 "
b1 -
1N
1M
b1 %
b1 +
b1 (
#1620
1B
1@
b10 .
19
02
b1100 !
b1100 ,
0:
1;
00
17
0N
b10 "
b10 -
1P
0M
1O
b10 %
b10 +
b10 (
#1630
b1101 !
b1101 ,
12
10
b11 "
b11 -
1N
1M
b11 %
b11 +
b11 (
#1640
0#
1I
0K
0@
0H
09
b0 .
0A
02
1:
0;
b1110 !
b1110 ,
1B
0E
00
07
1?
0N
0P
b100 "
b100 -
1R
0M
0O
1Q
b100 %
b100 +
b100 (
#1650
b1111 !
b1111 ,
12
10
b101 "
b101 -
1N
1M
b101 %
b101 +
b101 (
#1660
1#
0I
1K
1H
1A
0B
1E
1@
b110 .
19
02
b0 !
b0 ,
0:
1;
00
17
0N
b110 "
b110 -
1P
0M
1O
b110 %
b110 +
b110 (
#1670
b1 !
b1 ,
12
10
b111 "
b111 -
1N
1M
b111 %
b111 +
b111 (
